<?xml version="1.0" encoding="utf-8"?>
<!-- Generator: Adobe Illustrator 21.1.0, SVG Export Plug-In . SVG Version: 6.00 Build 0)  -->
<svg version="1.1" id="Icons" xmlns="http://www.w3.org/2000/svg" xmlns:xlink="http://www.w3.org/1999/xlink" x="0px" y="0px"
	 viewBox="0 0 100 100" style="enable-background:new 0 0 100 100;" xml:space="preserve">
<style type="text/css">
	.st0{fill:#757575;}
</style>
<g>
	<path class="st0" d="M99.4,92.3l-27-27c5.5-7,8.4-15.5,8.4-24.5C80.8,30,76.6,20,69,12.4C61.5,4.8,51.4,0.6,40.7,0.6
		S20,4.8,12.4,12.4C4.8,20,0.6,30,0.6,40.7S4.8,61.5,12.4,69C20,76.6,30,80.8,40.7,80.8c9,0,17.6-3,24.5-8.4l27,27L99.4,92.3z
		 M40.7,70.8c-8,0-15.6-3.1-21.2-8.8c-5.7-5.7-8.8-13.2-8.8-21.3c0-8,3.1-15.6,8.8-21.2c5.7-5.7,13.2-8.8,21.2-8.8
		s15.6,3.1,21.2,8.8c5.7,5.7,8.8,13.2,8.8,21.2c0,8-3.1,15.6-8.8,21.3C56.3,67.6,48.7,70.8,40.7,70.8z"/>
</g>
</svg>
